^C:\LIBS\OPENGL\GLFW\SRC\GLAD.C
/c /I"C:\USERS\DANWIN\DOCUMENTS\VISUAL STUDIO 2017\PROJECTS\BOUNDINGBOXTEST\OGLLIGHT\FREETYPE-WINDOWS-BINARIES-MASTER\INCLUDE" /ZI /nologo /W3 /WX- /diagnostics:classic /Od /Oy- /D WIN32 /D _DEBUG /D _CONSOLE /D _UNICODE /D UNICODE /Gm /EHsc /RTC1 /MDd /GS /fp:precise /Zc:wchar_t /Zc:forScope /Zc:inline /Fo"DEBUG\\" /Fd"DEBUG\VC141.PDB" /Gd /TC /analyze- C:\LIBS\OPENGL\GLFW\SRC\GLAD.C
^C:\USERS\DANWIN\DOCUMENTS\VISUAL STUDIO 2017\PROJECTS\OGLADVANCEDLIGHTING\OGLLIGHT\AABOX.CPP
/c /I"C:\USERS\DANWIN\DOCUMENTS\VISUAL STUDIO 2017\PROJECTS\OGLADVANCEDLIGHTING\OGLLIGHT\FREETYPE-WINDOWS-BINARIES-MASTER\INCLUDE" /ZI /nologo /W3 /WX- /diagnostics:classic /Od /Oy- /D WIN32 /D _DEBUG /D _CONSOLE /D _UNICODE /D UNICODE /Gm /EHsc /RTC1 /MDd /GS /fp:precise /Zc:wchar_t /Zc:forScope /Zc:inline /Fo"DEBUG\\" /Fd"DEBUG\VC141.PDB" /Gd /TP /analyze- C:\USERS\DANWIN\DOCUMENTS\VISUAL STUDIO 2017\PROJECTS\OGLADVANCEDLIGHTING\OGLLIGHT\AABOX.CPP
^C:\USERS\DANWIN\DOCUMENTS\VISUAL STUDIO 2017\PROJECTS\OGLADVANCEDLIGHTING\OGLLIGHT\FRUSTUM.CPP
/c /I"C:\USERS\DANWIN\DOCUMENTS\VISUAL STUDIO 2017\PROJECTS\OGLADVANCEDLIGHTING\OGLLIGHT\FREETYPE-WINDOWS-BINARIES-MASTER\INCLUDE" /ZI /nologo /W3 /WX- /diagnostics:classic /Od /Oy- /D WIN32 /D _DEBUG /D _CONSOLE /D _UNICODE /D UNICODE /Gm /EHsc /RTC1 /MDd /GS /fp:precise /Zc:wchar_t /Zc:forScope /Zc:inline /Fo"DEBUG\\" /Fd"DEBUG\VC141.PDB" /Gd /TP /analyze- C:\USERS\DANWIN\DOCUMENTS\VISUAL STUDIO 2017\PROJECTS\OGLADVANCEDLIGHTING\OGLLIGHT\FRUSTUM.CPP
^C:\USERS\DANWIN\DOCUMENTS\VISUAL STUDIO 2017\PROJECTS\OGLADVANCEDLIGHTING\OGLLIGHT\MAIN.CPP
/c /I"C:\USERS\DANWIN\DOCUMENTS\VISUAL STUDIO 2017\PROJECTS\OGLADVANCEDLIGHTING\OGLLIGHT\FREETYPE-WINDOWS-BINARIES-MASTER\INCLUDE" /ZI /nologo /W3 /WX- /diagnostics:classic /Od /Oy- /D WIN32 /D _DEBUG /D _CONSOLE /D _UNICODE /D UNICODE /Gm /EHsc /RTC1 /MDd /GS /fp:precise /Zc:wchar_t /Zc:forScope /Zc:inline /Fo"DEBUG\\" /Fd"DEBUG\VC141.PDB" /Gd /TP /analyze- C:\USERS\DANWIN\DOCUMENTS\VISUAL STUDIO 2017\PROJECTS\OGLADVANCEDLIGHTING\OGLLIGHT\MAIN.CPP
^C:\USERS\DANWIN\DOCUMENTS\VISUAL STUDIO 2017\PROJECTS\OGLADVANCEDLIGHTING\OGLLIGHT\PLANE.CPP
/c /I"C:\USERS\DANWIN\DOCUMENTS\VISUAL STUDIO 2017\PROJECTS\OGLADVANCEDLIGHTING\OGLLIGHT\FREETYPE-WINDOWS-BINARIES-MASTER\INCLUDE" /ZI /nologo /W3 /WX- /diagnostics:classic /Od /Oy- /D WIN32 /D _DEBUG /D _CONSOLE /D _UNICODE /D UNICODE /Gm /EHsc /RTC1 /MDd /GS /fp:precise /Zc:wchar_t /Zc:forScope /Zc:inline /Fo"DEBUG\\" /Fd"DEBUG\VC141.PDB" /Gd /TP /analyze- C:\USERS\DANWIN\DOCUMENTS\VISUAL STUDIO 2017\PROJECTS\OGLADVANCEDLIGHTING\OGLLIGHT\PLANE.CPP
^C:\USERS\DANWIN\DOCUMENTS\VISUAL STUDIO 2017\PROJECTS\OGLADVANCEDLIGHTING\OGLLIGHT\STB_IMAGE.CPP
/c /I"C:\USERS\DANWIN\DOCUMENTS\VISUAL STUDIO 2017\PROJECTS\OGLADVANCEDLIGHTING\OGLLIGHT\FREETYPE-WINDOWS-BINARIES-MASTER\INCLUDE" /ZI /nologo /W3 /WX- /diagnostics:classic /Od /Oy- /D WIN32 /D _DEBUG /D _CONSOLE /D _UNICODE /D UNICODE /Gm /EHsc /RTC1 /MDd /GS /fp:precise /Zc:wchar_t /Zc:forScope /Zc:inline /Fo"DEBUG\\" /Fd"DEBUG\VC141.PDB" /Gd /TP /analyze- C:\USERS\DANWIN\DOCUMENTS\VISUAL STUDIO 2017\PROJECTS\OGLADVANCEDLIGHTING\OGLLIGHT\STB_IMAGE.CPP
^C:\USERS\DANWIN\DOCUMENTS\VISUAL STUDIO 2017\PROJECTS\OGLADVANCEDLIGHTING\OGLLIGHT\AABB.CPP
/c /I"C:\USERS\DANWIN\DOCUMENTS\VISUAL STUDIO 2017\PROJECTS\OGLADVANCEDLIGHTING\OGLLIGHT\FREETYPE-WINDOWS-BINARIES-MASTER\INCLUDE" /ZI /nologo /W3 /WX- /diagnostics:classic /Od /Oy- /D WIN32 /D _DEBUG /D _CONSOLE /D _UNICODE /D UNICODE /Gm /EHsc /RTC1 /MDd /GS /fp:precise /Zc:wchar_t /Zc:forScope /Zc:inline /Fo"DEBUG\\" /Fd"DEBUG\VC141.PDB" /Gd /TP /analyze- C:\USERS\DANWIN\DOCUMENTS\VISUAL STUDIO 2017\PROJECTS\OGLADVANCEDLIGHTING\OGLLIGHT\AABB.CPP
^C:\USERS\DANWIN\DOCUMENTS\VISUAL STUDIO 2017\PROJECTS\BOUNDINGBOXTEST\OGLLIGHT\AABB.CPP
/c /I"C:\USERS\DANWIN\DOCUMENTS\VISUAL STUDIO 2017\PROJECTS\OGLADVANCEDLIGHTING\OGLLIGHT\FREETYPE-WINDOWS-BINARIES-MASTER\INCLUDE" /ZI /nologo /W3 /WX- /diagnostics:classic /Od /Oy- /D WIN32 /D _DEBUG /D _CONSOLE /D _UNICODE /D UNICODE /Gm /EHsc /RTC1 /MDd /GS /fp:precise /Zc:wchar_t /Zc:forScope /Zc:inline /Fo"DEBUG\\" /Fd"DEBUG\VC141.PDB" /Gd /TP /analyze- C:\USERS\DANWIN\DOCUMENTS\VISUAL STUDIO 2017\PROJECTS\BOUNDINGBOXTEST\OGLLIGHT\AABB.CPP
^C:\USERS\DANWIN\DOCUMENTS\VISUAL STUDIO 2017\PROJECTS\BOUNDINGBOXTEST\OGLLIGHT\FRUSTUM.CPP
/c /I"C:\USERS\DANWIN\DOCUMENTS\VISUAL STUDIO 2017\PROJECTS\BOUNDINGBOXTEST\OGLLIGHT\FREETYPE-WINDOWS-BINARIES-MASTER\INCLUDE" /ZI /nologo /W3 /WX- /diagnostics:classic /Od /Oy- /D WIN32 /D _DEBUG /D _CONSOLE /D _UNICODE /D UNICODE /Gm /EHsc /RTC1 /MDd /GS /fp:precise /Zc:wchar_t /Zc:forScope /Zc:inline /Fo"DEBUG\\" /Fd"DEBUG\VC141.PDB" /Gd /TP /analyze- C:\USERS\DANWIN\DOCUMENTS\VISUAL STUDIO 2017\PROJECTS\BOUNDINGBOXTEST\OGLLIGHT\FRUSTUM.CPP
^C:\USERS\DANWIN\DOCUMENTS\VISUAL STUDIO 2017\PROJECTS\BOUNDINGBOXTEST\OGLLIGHT\MAIN.CPP
/c /I"C:\USERS\DANWIN\DOCUMENTS\VISUAL STUDIO 2017\PROJECTS\BOUNDINGBOXTEST\OGLLIGHT\FREETYPE-WINDOWS-BINARIES-MASTER\INCLUDE" /ZI /nologo /W3 /WX- /diagnostics:classic /Od /Oy- /D WIN32 /D _DEBUG /D _CONSOLE /D _UNICODE /D UNICODE /Gm /EHsc /RTC1 /MDd /GS /fp:precise /Zc:wchar_t /Zc:forScope /Zc:inline /Fo"DEBUG\\" /Fd"DEBUG\VC141.PDB" /Gd /TP /analyze- C:\USERS\DANWIN\DOCUMENTS\VISUAL STUDIO 2017\PROJECTS\BOUNDINGBOXTEST\OGLLIGHT\MAIN.CPP
^C:\USERS\DANWIN\DOCUMENTS\VISUAL STUDIO 2017\PROJECTS\BOUNDINGBOXTEST\OGLLIGHT\PLANE.CPP
/c /I"C:\USERS\DANWIN\DOCUMENTS\VISUAL STUDIO 2017\PROJECTS\BOUNDINGBOXTEST\OGLLIGHT\FREETYPE-WINDOWS-BINARIES-MASTER\INCLUDE" /ZI /nologo /W3 /WX- /diagnostics:classic /Od /Oy- /D WIN32 /D _DEBUG /D _CONSOLE /D _UNICODE /D UNICODE /Gm /EHsc /RTC1 /MDd /GS /fp:precise /Zc:wchar_t /Zc:forScope /Zc:inline /Fo"DEBUG\\" /Fd"DEBUG\VC141.PDB" /Gd /TP /analyze- C:\USERS\DANWIN\DOCUMENTS\VISUAL STUDIO 2017\PROJECTS\BOUNDINGBOXTEST\OGLLIGHT\PLANE.CPP
^C:\USERS\DANWIN\DOCUMENTS\VISUAL STUDIO 2017\PROJECTS\BOUNDINGBOXTEST\OGLLIGHT\STB_IMAGE.CPP
/c /I"C:\USERS\DANWIN\DOCUMENTS\VISUAL STUDIO 2017\PROJECTS\BOUNDINGBOXTEST\OGLLIGHT\FREETYPE-WINDOWS-BINARIES-MASTER\INCLUDE" /ZI /nologo /W3 /WX- /diagnostics:classic /Od /Oy- /D WIN32 /D _DEBUG /D _CONSOLE /D _UNICODE /D UNICODE /Gm /EHsc /RTC1 /MDd /GS /fp:precise /Zc:wchar_t /Zc:forScope /Zc:inline /Fo"DEBUG\\" /Fd"DEBUG\VC141.PDB" /Gd /TP /analyze- C:\USERS\DANWIN\DOCUMENTS\VISUAL STUDIO 2017\PROJECTS\BOUNDINGBOXTEST\OGLLIGHT\STB_IMAGE.CPP
